timing_analysis/data/F0020CH1.CSV

Record Length,2.500000e+03,,  -0.500000000000,   1.10000,
Sample Interval,4.000000e-04,,  -0.499600000000,   1.02000,
Trigger Point,1.250000000000e+03,,  -0.499200000000,   1.02000,
,,,  -0.498800000000,   1.02000,
,,,  -0.498400000000,   1.02000,
,,,  -0.498000000000,   1.02000,
Source,CH1,,  -0.497600000000,   1.02000,
Vertical Units,V,,  -0.497200000000,   1.02000,
Vertical Scale,5.000000e-01,,  -0.496800000000,   1.02000,
Vertical Offset,0.000000e+00,,  -0.496400000000,   1.02000,
Horizontal Units,s,,  -0.496000000000,   1.02000,
Horizontal Scale,1.000000e-01,,  -0.495600000000,   1.02000,
Pt Fmt,Y,,  -0.495200000000,   1.02000,
Yzero,0.000000e+00,,  -0.494800000000,   1.02000,
Probe Atten,1.000000e+00,,  -0.494400000000,   1.02000,
Model Number,TBS1072B-EDU,,  -0.494000000000,   1.04000,
Serial Number,C014312,,  -0.493600000000,   1.02000,
Firmware Version,FV:v4.06,,  -0.493200000000,   1.02000,
,,,-00.492800000000,   1.04000,
,,,-00.492400000000,   1.02000,
,,,-00.492000000000,   1.02000,
,,,-00.491600000000,   1.02000,
,,,-00.491200000000,   1.02000,
,,,-00.490800000000,   1.02000,
,,,-00.490400000000,   1.04000,
,,,-00.490000000000,   1.02000,
,,,-00.489600000000,   1.02000,
,,,-00.489200000000,   1.02000,
,,,-00.488800000000,   1.02000,
,,,-00.488400000000,   1.02000,
,,,-00.488000000000,   1.02000,
,,,-00.487600000000,   1.04000,
,,,-00.487200000000,   1.02000,
,,,-00.486800000000,   1.02000,
,,,-00.486400000000,   1.02000,
,,,-00.486000000000,   1.02000,
,,,-00.485600000000,   1.00000,
,,,-00.485200000000,   1.02000,
,,,-00.484800000000,   1.00000,
,,,-00.484400000000,   1.02000,
,,,-00.484000000000,   1.02000,
,,,-00.483600000000,   1.04000,
,,,-00.483200000000,   1.02000,
,,,-00.482800000000,   1.02000,
,,,-00.482400000000,   1.02000,
,,,-00.482000000000,   1.02000,
,,,-00.481600000000,   1.02000,
,,,-00.481200000000,   1.02000,
,,,-00.480800000000,   1.02000,
,,,-00.480400000000,   1.04000,
,,,-00.480000000000,   1.04000,
,,,-00.479600000000,   1.04000,
,,,-00.479200000000,   1.04000,
,,,-00.478800000000,   1.04000,
,,,-00.478400000000,   1.02000,
,,,-00.478000000000,   1.02000,
,,,-00.477600000000,   1.02000,
,,,-00.477200000000,   1.02000,
,,,-00.476800000000,   1.02000,
,,,-00.476400000000,   1.02000,
,,,-00.476000000000,   1.02000,
,,,-00.475600000000,   1.02000,
,,,-00.475200000000,   1.02000,
,,,-00.474800000000,   1.02000,
,,,-00.474400000000,   1.04000,
,,,-00.474000000000,   1.02000,
,,,-00.473600000000,   1.02000,
,,,-00.473200000000,   1.02000,
,,,-00.472800000000,   1.02000,
,,,-00.472400000000,   1.02000,
,,,-00.472000000000,   1.02000,
,,,-00.471600000000,   1.02000,
,,,-00.471200000000,   1.06000,
,,,-00.470800000000,   1.02000,
,,,-00.470400000000,   1.02000,
,,,-00.470000000000,   1.04000,
,,,-00.469600000000,   1.04000,
,,,-00.469200000000,   1.02000,
,,,-00.468800000000,   1.02000,
,,,-00.468400000000,   1.02000,
,,,-00.468000000000,   1.02000,
,,,-00.467600000000,   0.96000,
,,,-00.467200000000,   1.02000,
,,,-00.466800000000,   1.02000,
,,,-00.466400000000,   1.02000,
,,,-00.466000000000,   0.98000,
,,,-00.465600000000,   1.04000,
,,,-00.465200000000,   1.02000,
,,,-00.464800000000,   1.02000,
,,,-00.464400000000,   1.02000,
,,,-00.464000000000,   1.02000,
,,,-00.463600000000,   0.96000,
,,,-00.463200000000,   1.02000,
,,,-00.462800000000,   1.02000,
,,,-00.462400000000,   1.02000,
,,,-00.462000000000,   1.02000,
,,,-00.461600000000,   1.02000,
,,,-00.461200000000,   1.02000,
,,,-00.460800000000,   1.02000,
,,,-00.460400000000,   1.02000,
,,,-00.460000000000,   1.02000,
,,,-00.459600000000,   1.04000,
,,,-00.459200000000,   1.02000,
,,,-00.458800000000,   1.00000,
,,,-00.458400000000,   1.02000,
,,,-00.458000000000,   1.02000,
,,,-00.457600000000,   1.02000,
,,,-00.457200000000,   1.02000,
,,,-00.456800000000,   1.02000,
,,,-00.456400000000,   1.04000,
,,,-00.456000000000,   1.02000,
,,,-00.455600000000,   1.04000,
,,,-00.455200000000,   1.02000,
,,,-00.454800000000,   0.98000,
,,,-00.454400000000,   1.02000,
,,,-00.454000000000,   1.02000,
,,,-00.453600000000,   1.02000,
,,,-00.453200000000,   1.02000,
,,,-00.452800000000,   1.02000,
,,,-00.452400000000,   1.02000,
,,,-00.452000000000,   0.98000,
,,,-00.451600000000,   1.02000,
,,,-00.451200000000,   1.02000,
,,,-00.450800000000,   0.18000,
,,,-00.450400000000,   0.00000,
,,,-00.450000000000,   0.00000,
,,,-00.449600000000,   0.00000,
,,,-00.449200000000,   0.00000,
,,,-00.448800000000,   0.00000,
,,,-00.448400000000,  -0.02000,
,,,-00.448000000000,   0.00000,
,,,-00.447600000000,   0.00000,
,,,-00.447200000000,   0.00000,
,,,-00.446800000000,   0.00000,
,,,-00.446400000000,   0.00000,
,,,-00.446000000000,   0.00000,
,,,-00.445600000000,  -0.02000,
,,,-00.445200000000,   0.00000,
,,,-00.444800000000,   0.00000,
,,,-00.444400000000,   0.00000,
,,,-00.444000000000,   0.00000,
,,,-00.443600000000,   0.00000,
,,,-00.443200000000,   0.00000,
,,,-00.442800000000,   0.00000,
,,,-00.442400000000,   0.00000,
,,,-00.442000000000,   0.00000,
,,,-00.441600000000,   0.00000,
,,,-00.441200000000,   0.00000,
,,,-00.440800000000,   0.00000,
,,,-00.440400000000,   0.00000,
,,,-00.440000000000,   0.00000,
,,,-00.439600000000,   0.00000,
,,,-00.439200000000,   0.00000,
,,,-00.438800000000,   0.00000,
,,,-00.438400000000,   0.00000,
,,,-00.438000000000,   0.00000,
,,,-00.437600000000,  -0.02000,
,,,-00.437200000000,   0.00000,
,,,-00.436800000000,   0.00000,
,,,-00.436400000000,   0.00000,
,,,-00.436000000000,   0.00000,
,,,-00.435600000000,   0.00000,
,,,-00.435200000000,   0.02000,
,,,-00.434800000000,   0.00000,
,,,-00.434400000000,   0.00000,
,,,-00.434000000000,   0.00000,
,,,-00.433600000000,   0.00000,
,,,-00.433200000000,   0.02000,
,,,-00.432800000000,   0.00000,
,,,-00.432400000000,   0.00000,
,,,-00.432000000000,   0.00000,
,,,-00.431600000000,   0.00000,
,,,-00.431200000000,   0.00000,
,,,-00.430800000000,   0.00000,
,,,-00.430400000000,   0.00000,
,,,-00.430000000000,   0.00000,
,,,-00.429600000000,   0.00000,
,,,-00.429200000000,   0.04000,
,,,-00.428800000000,   0.00000,
,,,-00.428400000000,   0.02000,
,,,-00.428000000000,   0.00000,
,,,-00.427600000000,   0.00000,
,,,-00.427200000000,   0.00000,
,,,-00.426800000000,   0.00000,
,,,-00.426400000000,   0.00000,
,,,-00.426000000000,   0.00000,
,,,-00.425600000000,   0.04000,
,,,-00.425200000000,   0.00000,
,,,-00.424800000000,   0.00000,
,,,-00.424400000000,   0.00000,
,,,-00.424000000000,   0.00000,
,,,-00.423600000000,   0.00000,
,,,-00.423200000000,   0.00000,
,,,-00.422800000000,   0.00000,
,,,-00.422400000000,   0.02000,
,,,-00.422000000000,   0.00000,
,,,-00.421600000000,   0.00000,
,,,-00.421200000000,   0.00000,
,,,-00.420800000000,   0.00000,
,,,-00.420400000000,   0.00000,
,,,-00.420000000000,   0.02000,
,,,-00.419600000000,   0.00000,
,,,-00.419200000000,   0.00000,
,,,-00.418800000000,   0.00000,
,,,-00.418400000000,   0.00000,
,,,-00.418000000000,   0.00000,
,,,-00.417600000000,   0.00000,
,,,-00.417200000000,   0.00000,
,,,-00.416800000000,   0.00000,
,,,-00.416400000000,   0.00000,
,,,-00.416000000000,   0.00000,
,,,-00.415600000000,   0.00000,
,,,-00.415200000000,   0.00000,
,,,-00.414800000000,   0.00000,
,,,-00.414400000000,   0.00000,
,,,-00.414000000000,   0.00000,
,,,-00.413600000000,   0.00000,
,,,-00.413200000000,   0.00000,
,,,-00.412800000000,   0.00000,
,,,-00.412400000000,   0.00000,
,,,-00.412000000000,   0.00000,
,,,-00.411600000000,   0.00000,
,,,-00.411200000000,   0.00000,
,,,-00.410800000000,   0.00000,
,,,-00.410400000000,   0.00000,
,,,-00.410000000000,   0.02000,
,,,-00.409600000000,   0.00000,
,,,-00.409200000000,   0.00000,
,,,-00.408800000000,   0.02000,
,,,-00.408400000000,   0.00000,
,,,-00.408000000000,   0.00000,
,,,-00.407600000000,   0.00000,
,,,-00.407200000000,   0.00000,
,,,-00.406800000000,   0.00000,
,,,-00.406400000000,  -0.06000,
,,,-00.406000000000,   0.00000,
,,,-00.405600000000,   0.00000,
,,,-00.405200000000,   0.00000,
,,,-00.404800000000,   0.00000,
,,,-00.404400000000,   0.00000,
,,,-00.404000000000,   0.00000,
,,,-00.403600000000,   0.00000,
,,,-00.403200000000,   0.02000,
,,,-00.402800000000,   0.06000,
,,,-00.402400000000,   0.00000,
,,,-00.402000000000,   0.00000,
,,,-00.401600000000,   0.00000,
,,,-00.401200000000,   0.00000,
,,,-00.400800000000,   0.02000,
,,,-00.400400000000,   0.00000,
,,,-00.400000000000,   1.10000,
,,,-00.399600000000,   1.04000,
,,,-00.399200000000,   1.02000,
,,,-00.398800000000,   1.02000,
,,,-00.398400000000,   1.02000,
,,,-00.398000000000,   1.04000,
,,,-00.397600000000,   1.04000,
,,,-00.397200000000,   1.02000,
,,,-00.396800000000,   1.02000,
,,,-00.396400000000,   1.02000,
,,,-00.396000000000,   1.02000,
,,,-00.395600000000,   1.02000,
,,,-00.395200000000,   1.02000,
,,,-00.394800000000,   1.04000,
,,,-00.394400000000,   1.02000,
,,,-00.394000000000,   1.04000,
,,,-00.393600000000,   1.02000,
,,,-00.393200000000,   1.02000,
,,,-00.392800000000,   1.00000,
,,,-00.392400000000,   1.02000,
,,,-00.392000000000,   1.02000,
,,,-00.391600000000,   1.04000,
,,,-00.391200000000,   1.02000,
,,,-00.390800000000,   1.04000,
,,,-00.390400000000,   1.02000,
,,,-00.390000000000,   1.02000,
,,,-00.389600000000,   1.02000,
,,,-00.389200000000,   1.02000,
,,,-00.388800000000,   1.02000,
,,,-00.388400000000,   1.02000,
,,,-00.388000000000,   1.04000,
,,,-00.387600000000,   1.02000,
,,,-00.387200000000,   1.04000,
,,,-00.386800000000,   1.02000,
,,,-00.386400000000,   1.02000,
,,,-00.386000000000,   1.02000,
,,,-00.385600000000,   1.02000,
,,,-00.385200000000,   1.02000,
,,,-00.384800000000,   1.02000,
,,,-00.384400000000,   1.02000,
,,,-00.384000000000,   1.02000,
,,,-00.383600000000,   1.04000,
,,,-00.383200000000,   1.04000,
,,,-00.382800000000,   1.02000,
,,,-00.382400000000,   1.02000,
,,,-00.382000000000,   1.02000,
,,,-00.381600000000,   1.02000,
,,,-00.381200000000,   1.02000,
,,,-00.380800000000,   1.02000,
,,,-00.380400000000,   1.02000,
,,,-00.380000000000,   1.02000,
,,,-00.379600000000,   1.04000,
,,,-00.379200000000,   1.02000,
,,,-00.378800000000,   1.02000,
,,,-00.378400000000,   1.02000,
,,,-00.378000000000,   1.04000,
,,,-00.377600000000,   0.98000,
,,,-00.377200000000,   1.04000,
,,,-00.376800000000,   1.02000,
,,,-00.376400000000,   1.02000,
,,,-00.376000000000,   1.02000,
,,,-00.375600000000,   1.04000,
,,,-00.375200000000,   1.02000,
,,,-00.374800000000,   1.02000,
,,,-00.374400000000,   1.02000,
,,,-00.374000000000,   1.02000,
,,,-00.373600000000,   1.02000,
,,,-00.373200000000,   1.02000,
,,,-00.372800000000,   1.02000,
,,,-00.372400000000,   1.02000,
,,,-00.372000000000,   1.02000,
,,,-00.371600000000,   1.02000,
,,,-00.371200000000,   1.02000,
,,,-00.370800000000,   1.02000,
,,,-00.370400000000,   1.04000,
,,,-00.370000000000,   1.04000,
,,,-00.369600000000,   1.02000,
,,,-00.369200000000,   1.02000,
,,,-00.368800000000,   1.04000,
,,,-00.368400000000,   1.02000,
,,,-00.368000000000,   1.02000,
,,,-00.367600000000,   1.02000,
,,,-00.367200000000,   1.04000,
,,,-00.366800000000,   1.02000,
,,,-00.366400000000,   1.02000,
,,,-00.366000000000,   1.02000,
,,,-00.365600000000,   1.02000,
,,,-00.365200000000,   1.02000,
,,,-00.364800000000,   1.02000,
,,,-00.364400000000,   1.02000,
,,,-00.364000000000,   1.02000,
,,,-00.363600000000,   1.04000,
,,,-00.363200000000,   1.02000,
,,,-00.362800000000,   1.02000,
,,,-00.362400000000,   1.02000,
,,,-00.362000000000,   1.02000,
,,,-00.361600000000,   1.08000,
,,,-00.361200000000,   1.00000,
,,,-00.360800000000,   1.02000,
,,,-00.360400000000,   1.02000,
,,,-00.360000000000,   1.02000,
,,,-00.359600000000,   1.02000,
,,,-00.359200000000,   1.02000,
,,,-00.358800000000,   1.02000,
,,,-00.358400000000,   1.02000,
,,,-00.358000000000,   1.02000,
,,,-00.357600000000,   0.98000,
,,,-00.357200000000,   1.02000,
,,,-00.356800000000,   1.02000,
,,,-00.356400000000,   1.04000,
,,,-00.356000000000,   1.02000,
,,,-00.355600000000,   1.02000,
,,,-00.355200000000,   1.02000,
,,,-00.354800000000,   1.08000,
,,,-00.354400000000,   1.02000,
,,,-00.354000000000,   1.04000,
,,,-00.353600000000,   1.02000,
,,,-00.353200000000,   1.02000,
,,,-00.352800000000,   1.00000,
,,,-00.352400000000,   1.02000,
,,,-00.352000000000,   1.02000,
,,,-00.351600000000,   1.02000,
,,,-00.351200000000,   1.02000,
,,,-00.350800000000,   1.02000,
,,,-00.350400000000,  -0.04000,
,,,-00.350000000000,   0.00000,
,,,-00.349600000000,   0.00000,
,,,-00.349200000000,   0.00000,
,,,-00.348800000000,   0.00000,
,,,-00.348400000000,   0.00000,
,,,-00.348000000000,   0.00000,
,,,-00.347600000000,   0.00000,
,,,-00.347200000000,   0.00000,
,,,-00.346800000000,   0.00000,
,,,-00.346400000000,   0.00000,
,,,-00.346000000000,   0.06000,
,,,-00.345600000000,   0.00000,
,,,-00.345200000000,   0.00000,
,,,-00.344800000000,   0.02000,
,,,-00.344400000000,   0.00000,
,,,-00.344000000000,   0.00000,
,,,-00.343600000000,   0.00000,
,,,-00.343200000000,   0.00000,
,,,-00.342800000000,   0.00000,
,,,-00.342400000000,   0.00000,
,,,-00.342000000000,   0.00000,
,,,-00.341600000000,   0.00000,
,,,-00.341200000000,   0.00000,
,,,-00.340800000000,   0.00000,
,,,-00.340400000000,   0.00000,
,,,-00.340000000000,   0.00000,
,,,-00.339600000000,  -0.06000,
,,,-00.339200000000,   0.00000,
,,,-00.338800000000,   0.00000,
,,,-00.338400000000,   0.00000,
,,,-00.338000000000,   0.00000,
,,,-00.337600000000,  -0.02000,
,,,-00.337200000000,   0.00000,
,,,-00.336800000000,   0.00000,
,,,-00.336400000000,   0.00000,
,,,-00.336000000000,   0.00000,
,,,-00.335600000000,   0.02000,
,,,-00.335200000000,   0.00000,
,,,-00.334800000000,   0.00000,
,,,-00.334400000000,   0.00000,
,,,-00.334000000000,   0.02000,
,,,-00.333600000000,   0.02000,
,,,-00.333200000000,   0.00000,
,,,-00.332800000000,   0.02000,
,,,-00.332400000000,   0.00000,
,,,-00.332000000000,   0.00000,
,,,-00.331600000000,   0.00000,
,,,-00.331200000000,   0.00000,
,,,-00.330800000000,   0.00000,
,,,-00.330400000000,   0.00000,
,,,-00.330000000000,  -0.02000,
,,,-00.329600000000,   0.00000,
,,,-00.329200000000,   0.00000,
,,,-00.328800000000,   0.00000,
,,,-00.328400000000,   0.00000,
,,,-00.328000000000,   0.00000,
,,,-00.327600000000,   0.00000,
,,,-00.327200000000,   0.00000,
,,,-00.326800000000,  -0.02000,
,,,-00.326400000000,   0.00000,
,,,-00.326000000000,   0.00000,
,,,-00.325600000000,   0.00000,
,,,-00.325200000000,   0.00000,
,,,-00.324800000000,   0.00000,
,,,-00.324400000000,   0.00000,
,,,-00.324000000000,   0.00000,
,,,-00.323600000000,   0.00000,
,,,-00.323200000000,   0.00000,
,,,-00.322800000000,   0.00000,
,,,-00.322400000000,   0.00000,
,,,-00.322000000000,   0.00000,
,,,-00.321600000000,   0.00000,
,,,-00.321200000000,  -0.02000,
,,,-00.320800000000,   0.00000,
,,,-00.320400000000,   0.02000,
,,,-00.320000000000,   0.00000,
,,,-00.319600000000,   0.00000,
,,,-00.319200000000,   0.00000,
,,,-00.318800000000,   0.00000,
,,,-00.318400000000,   0.00000,
,,,-00.318000000000,   0.00000,
,,,-00.317600000000,   0.00000,
,,,-00.317200000000,  -0.02000,
,,,-00.316800000000,   0.00000,
,,,-00.316400000000,   0.00000,
,,,-00.316000000000,   0.00000,
,,,-00.315600000000,   0.06000,
,,,-00.315200000000,   0.00000,
,,,-00.314800000000,   0.02000,
,,,-00.314400000000,   0.00000,
,,,-00.314000000000,   0.00000,
,,,-00.313600000000,   0.00000,
,,,-00.313200000000,   0.00000,
,,,-00.312800000000,   0.00000,
,,,-00.312400000000,   0.00000,
,,,-00.312000000000,   0.00000,
,,,-00.311600000000,   0.02000,
,,,-00.311200000000,   0.00000,
,,,-00.310800000000,   0.06000,
,,,-00.310400000000,   0.00000,
,,,-00.310000000000,   0.00000,
,,,-00.309600000000,   0.00000,
,,,-00.309200000000,   0.00000,
,,,-00.308800000000,   0.02000,
,,,-00.308400000000,   0.00000,
,,,-00.308000000000,   0.00000,
,,,-00.307600000000,   0.00000,
,,,-00.307200000000,   0.00000,
,,,-00.306800000000,   0.00000,
,,,-00.306400000000,   0.00000,
,,,-00.306000000000,   0.00000,
,,,-00.305600000000,   0.00000,
,,,-00.305200000000,   0.00000,
,,,-00.304800000000,   0.04000,
,,,-00.304400000000,   0.00000,
,,,-00.304000000000,  -0.02000,
,,,-00.303600000000,   0.00000,
,,,-00.303200000000,   0.00000,
,,,-00.302800000000,   0.02000,
,,,-00.302400000000,   0.00000,
,,,-00.302000000000,   0.02000,
,,,-00.301600000000,   0.00000,
,,,-00.301200000000,   0.00000,
,,,-00.300800000000,   0.00000,
,,,-00.300400000000,  -0.02000,
,,,-00.300000000000,   1.14000,
,,,-00.299600000000,   1.02000,
,,,-00.299200000000,   1.02000,
,,,-00.298800000000,   1.02000,
,,,-00.298400000000,   1.02000,
,,,-00.298000000000,   1.02000,
,,,-00.297600000000,   0.96000,
,,,-00.297200000000,   1.02000,
,,,-00.296800000000,   1.02000,
,,,-00.296400000000,   1.02000,
,,,-00.296000000000,   1.02000,
,,,-00.295600000000,   1.08000,
,,,-00.295200000000,   1.04000,
,,,-00.294800000000,   1.02000,
,,,-00.294400000000,   1.02000,
,,,-00.294000000000,   1.04000,
,,,-00.293600000000,   1.02000,
,,,-00.293200000000,   1.02000,
,,,-00.292800000000,   1.02000,
,,,-00.292400000000,   1.02000,
,,,-00.292000000000,   1.02000,
,,,-00.291600000000,   1.02000,
,,,-00.291200000000,   1.02000,
,,,-00.290800000000,   0.98000,
,,,-00.290400000000,   1.02000,
,,,-00.290000000000,   1.02000,
,,,-00.289600000000,   1.02000,
,,,-00.289200000000,   1.02000,
,,,-00.288800000000,   1.06000,
,,,-00.288400000000,   1.02000,
,,,-00.288000000000,   1.02000,
,,,-00.287600000000,   1.02000,
,,,-00.287200000000,   1.00000,
,,,-00.286800000000,   1.02000,
,,,-00.286400000000,   1.02000,
,,,-00.286000000000,   1.04000,
,,,-00.285600000000,   1.02000,
,,,-00.285200000000,   1.02000,
,,,-00.284800000000,   1.00000,
,,,-00.284400000000,   1.02000,
,,,-00.284000000000,   1.02000,
,,,-00.283600000000,   1.02000,
,,,-00.283200000000,   1.02000,
,,,-00.282800000000,   1.02000,
,,,-00.282400000000,   1.02000,
,,,-00.282000000000,   1.00000,
,,,-00.281600000000,   1.02000,
,,,-00.281200000000,   1.02000,
,,,-00.280800000000,   1.02000,
,,,-00.280400000000,   1.04000,
,,,-00.280000000000,   1.02000,
,,,-00.279600000000,   1.02000,
,,,-00.279200000000,   1.00000,
,,,-00.278800000000,   1.02000,
,,,-00.278400000000,   1.02000,
,,,-00.278000000000,   1.02000,
,,,-00.277600000000,   1.00000,
,,,-00.277200000000,   1.02000,
,,,-00.276800000000,   1.02000,
,,,-00.276400000000,   1.02000,
,,,-00.276000000000,   1.02000,
,,,-00.275600000000,   1.02000,
,,,-00.275200000000,   1.04000,
,,,-00.274800000000,   1.02000,
,,,-00.274400000000,   1.02000,
,,,-00.274000000000,   1.02000,
,,,-00.273600000000,   1.02000,
,,,-00.273200000000,   1.04000,
,,,-00.272800000000,   1.02000,
,,,-00.272400000000,   1.02000,
,,,-00.272000000000,   1.02000,
,,,-00.271600000000,   1.02000,
,,,-00.271200000000,   1.04000,
,,,-00.270800000000,   1.02000,
,,,-00.270400000000,   1.02000,
,,,-00.270000000000,   1.02000,
,,,-00.269600000000,   1.04000,
,,,-00.269200000000,   1.02000,
,,,-00.268800000000,   1.04000,
,,,-00.268400000000,   1.02000,
,,,-00.268000000000,   1.02000,
,,,-00.267600000000,   1.04000,
,,,-00.267200000000,   1.02000,
,,,-00.266800000000,   1.08000,
,,,-00.266400000000,   1.02000,
,,,-00.266000000000,   1.02000,
,,,-00.265600000000,   1.02000,
,,,-00.265200000000,   1.04000,
,,,-00.264800000000,   0.96000,
,,,-00.264400000000,   1.04000,
,,,-00.264000000000,   1.04000,
,,,-00.263600000000,   1.02000,
,,,-00.263200000000,   1.02000,
,,,-00.262800000000,   1.02000,
,,,-00.262400000000,   1.04000,
,,,-00.262000000000,   1.02000,
,,,-00.261600000000,   1.02000,
,,,-00.261200000000,   1.02000,
,,,-00.260800000000,   1.02000,
,,,-00.260400000000,   1.02000,
,,,-00.260000000000,   0.98000,
,,,-00.259600000000,   1.02000,
,,,-00.259200000000,   1.02000,
,,,-00.258800000000,   1.02000,
,,,-00.258400000000,   1.02000,
,,,-00.258000000000,   1.02000,
,,,-00.257600000000,   1.04000,
,,,-00.257200000000,   1.04000,
,,,-00.256800000000,   1.02000,
,,,-00.256400000000,   0.98000,
,,,-00.256000000000,   1.02000,
,,,-00.255600000000,   1.04000,
,,,-00.255200000000,   1.02000,
,,,-00.254800000000,   1.02000,
